{
  "type": "service_account",
  "project_id": "canto-estatistico-eua-331403",
  "private_key_id": "fd02359e6d696d2261988e034056fde737ee1770",
  "private_key": "-----BEGIN PRIVATE KEY-----\nMIIEvQIBADANBgkqhkiG9w0BAQEFAASCBKcwggSjAgEAAoIBAQClnigpCT6L4B7W\nSEkVfi/MbEGVeEmZl/bLZTkf136s4BlDukUTye/Z3z2Edha/WmWo/JdLgzR3Mnip\nGII+mdd3vfzfZHymuTDpA5zieTzaLLKJYpK9IhjnFD8SuO1bQDJAOfaQkY8NSRg2\nGb/fJct7l8R6FPk4pGi4RjfyyJ7lLMXlGkBynxy2DyC+tdNLTCtf4wf5S7MjWB6w\nvlDW0u8bJwl8VIlRSI9YNHxsq08LueyZyXFMkH2SElMZfr1Eb/86sfkTy96xOmqa\ndviYp4UeeDLEavO3rPexR8WYD4oCrNngFz/9zkuMDyUzQpoR2SadAyO0uVJbavu9\nUjEYBkKzAgMBAAECggEATnb/bO25ydhNk9UcdwfZSn8RlWivagsCvHuBFHJqzCnC\nHoHeH1GBhtYK1bqC7Xa9ClJdtcN8NGrfmrGHZ3RIjq0e5JG9stmzb/ortmqdJ3qc\nvZVLkzrX1IcVmN+vaJeiFya/B+BGh5NVWrBZZLYJ0Uzmo7ZTGwBdssxlzms5SLbp\nEoQt7bU9f6KwsuljN0rBAu6y7uFvup3+b3isar5Vs4xZJ9x9l8wWxmc7NSwQPTEZ\nkncZ87YldLnWpQJ8mebfkQIGEPKE98yzajcwtEgiIahcAQGgWNHgSbXphTzW9Jgf\nW8CV5XmiXOEAaBiKlAxol69Ovrhd7jBYMP9l/4seOQKBgQDjxxltNzD+EspGmzYS\n3Ru+i5slGmxomuAYnNAKkJ1m+3suwtFwyZjBnxW+C9LXYj41ZtosIKhJmDYCMwpf\n35SRsqwdsr7/GtsRHNSEduU9Oi422JAmX77GrysDZ3B8LrORTSojghZxQRL2T58q\nBXY2e5VjAupPEW14TpKB+Y8UiQKBgQC6I2bMah+uHMbPQBy7x2DsWPCDEoxXqaLg\nTM2c/qqBttp+fcn5NZt1bsR9bg5IWcf5gg4uVrv/IrDoXlajDUrak0KK/MmYgFlU\nOzAlovQljbBToKXUcVoL08D1O5znlah9+zZYaSvIDQvhDF5ggYnR3e21wvgvxy22\nzcMidAjGWwKBgFhk1qg8p+Whsx/tcfGmHvM2SFIAzBtYJylGCbJf5sWlSGugLRlB\nEufo7c4f1oXBWXTt4jMHxWcyC5uU5SzJnmVgWkz4JgjoCiW883goj9PP9UlRh7ds\npqOCLQYYKV333bXApV68SCtRXqN5yMHM9tAz64hOBFIE6F+s1kxcZbtJAoGBALVq\n+a90I6psa6zlvNucKLBSwx/M/TIXqSLaWHCSmZbRpEUyzp7xC7K6IhJqKMuFje12\nP+IUMSkrI6dnAyPqObGtY2bZmJblSataAMQ9/Z14aoonglj7nZr3aRLbZkMkz1Ly\nfHZRExXo+VH/3yBKQQxmNGA6RfEzPS/1fiHfXAoPAoGAfc/4D1sYiP/PC+M8STXw\nANCqDRvZDq+bJbxT2+qgoQ/FVpqyixvioVxFz/a3hRa0F77m/MeuIsCuUJXlFLJt\nVltDNRN6Vxj31b0QUBJ68YDH3KTzrIp6sLPARpJ/24foqrcLHjO+S5eonyhefO7R\nFm4eXCByvJIFhpFuNsbLCic=\n-----END PRIVATE KEY-----\n",
  "client_email": "firebase-adminsdk-6qfzb@canto-estatistico-eua-331403.iam.gserviceaccount.com",
  "client_id": "110591563316453613519",
  "auth_uri": "https://accounts.google.com/o/oauth2/auth",
  "token_uri": "https://oauth2.googleapis.com/token",
  "auth_provider_x509_cert_url": "https://www.googleapis.com/oauth2/v1/certs",
  "client_x509_cert_url": "https://www.googleapis.com/robot/v1/metadata/x509/firebase-adminsdk-6qfzb%40canto-estatistico-eua-331403.iam.gserviceaccount.com"
}
